…
If a package had a GitHub issue onboarding URL in the registry, it is
considered to have gone through (or be going through) rOpenSci software
review. If the issue has the [“6/approved”
label](https://github.com/ropensci/software-review/issues?utf8=%E2%9C%93&q=is%3Aissue+label%3A6%2Fapproved+)
on it, then I’m considering the package to have been “Approved”
(regardless of whether the issue is open or closed). If it doesn’t, then
the review is “In Progress”.

``` r
library(ropenscipackagesreviewed)

ropensci_packages
#> # A tibble: 406 x 6
#>    name  software_review onboarding_issue issue_labels review_status
#>    <chr> <lgl>           <chr>            <chr>        <chr>        
#>  1 auk   TRUE            https://github.… 6/approved,… Approved     
#>  2 genb… TRUE            https://github.… 6/approved,… Approved     
#>  3 tree… TRUE            https://github.… 6/approved,… Approved     
#>  4 apip… FALSE           <NA>             <NA>         <NA>         
#>  5 arre… FALSE           <NA>             <NA>         <NA>         
#>  6 aspa… FALSE           <NA>             <NA>         <NA>         
#>  7 avai… FALSE           <NA>             <NA>         <NA>         
#>  8 bind… FALSE           <NA>             <NA>         <NA>         
#>  9 blog… FALSE           <NA>             <NA>         <NA>         
#> 10 cche… FALSE           <NA>             <NA>         <NA>         
#> # … with 396 more rows, and 1 more variable: issue_created <date>
```
…
